\relax 
\@writefile{toc}{\contentsline {section}{\numberline {1}Introduction}{2}}
\@writefile{toc}{\contentsline {section}{\numberline {2}Basic Theory}{2}}
\@writefile{toc}{\contentsline {section}{\numberline {3}Implementation}{2}}
\newlabel{eq:4}{{4}{2}}
\@writefile{toc}{\contentsline {section}{\numberline {4}Example Functions}{3}}
\@writefile{toc}{\contentsline {subsection}{\numberline {4.1}Rosenbrock Function}{3}}
\@writefile{toc}{\contentsline {subsection}{\numberline {4.2}Quadric Function}{3}}
\@writefile{toc}{\contentsline {subsection}{\numberline {4.3}Ackley Function}{3}}
\@writefile{toc}{\contentsline {subsection}{\numberline {4.4}Rastrigin Function}{3}}
\@writefile{toc}{\contentsline {section}{\numberline {5}Results}{3}}
\@writefile{toc}{\contentsline {subsection}{\numberline {5.1}Rosenbrock Function}{4}}
\@writefile{lof}{\contentsline {figure}{\numberline {1}{\ignorespaces Rosenbrock function optimized using 10 dimensions, population of 20, and 200 iterations}}{4}}
\newlabel{fig:rosenbrock1}{{1}{4}}
\@writefile{lof}{\contentsline {figure}{\numberline {2}{\ignorespaces Rosenbrock function optimized using 20 dimensions, population of 40, and 200 iterations}}{4}}
\newlabel{fig:rosenbrock2}{{2}{4}}
\@writefile{lof}{\contentsline {figure}{\numberline {3}{\ignorespaces Rosenbrock function optimized using 20 dimensions, population of 40, and 400 iterations}}{5}}
\newlabel{fig:rosenbrock3}{{3}{5}}
\@writefile{lof}{\contentsline {figure}{\numberline {4}{\ignorespaces Rosenbrock function optimized using 30 dimensions, population of 50, and 400 iterations}}{5}}
\newlabel{fig:rosenbrock4}{{4}{5}}
\@writefile{toc}{\contentsline {subsection}{\numberline {5.2}Quadric Function}{6}}
\@writefile{lof}{\contentsline {figure}{\numberline {5}{\ignorespaces Quadric function optimized using 10 dimensions, population of 20, and 200 iterations}}{6}}
\newlabel{fig:quadric1}{{5}{6}}
\@writefile{lof}{\contentsline {figure}{\numberline {6}{\ignorespaces Quadric function optimized using 10 dimensions, population of 40, and 200 iterations}}{6}}
\newlabel{fig:quadric2}{{6}{6}}
\@writefile{lof}{\contentsline {figure}{\numberline {7}{\ignorespaces Quadric function optimized using 10 dimensions, population of 40, and 800 iterations}}{7}}
\newlabel{fig:quadric3}{{7}{7}}
\@writefile{lof}{\contentsline {figure}{\numberline {8}{\ignorespaces Quadric function optimized using 20 dimensions, population of 50, and 800 iterations}}{7}}
\newlabel{fig:quadric4}{{8}{7}}
\@writefile{toc}{\contentsline {subsection}{\numberline {5.3}Ackley Function}{8}}
\@writefile{lof}{\contentsline {figure}{\numberline {9}{\ignorespaces Ackley function optimized using 10 dimensions, population of 40, and 200 iterations}}{8}}
\newlabel{fig:ackley1}{{9}{8}}
\@writefile{lof}{\contentsline {figure}{\numberline {10}{\ignorespaces Ackley function optimized using 10 dimensions, population of 30, and 200 iterations}}{8}}
\newlabel{fig:ackley2}{{10}{8}}
\@writefile{lof}{\contentsline {figure}{\numberline {11}{\ignorespaces Ackley function optimized using 20 dimensions, population of 40, and 200 iterations}}{9}}
\newlabel{fig:ackley3}{{11}{9}}
\@writefile{lof}{\contentsline {figure}{\numberline {12}{\ignorespaces Ackley function optimized using 30 dimensions, population of 50, and 800 iterations}}{9}}
\newlabel{fig:ackley4}{{12}{9}}
\@writefile{toc}{\contentsline {subsection}{\numberline {5.4}Rastrigin Function}{10}}
\@writefile{lof}{\contentsline {figure}{\numberline {13}{\ignorespaces Rastrigin function optimized using 10 dimensions, population of 20, and 200 iterations}}{10}}
\newlabel{fig:rastrigin1}{{13}{10}}
\@writefile{lof}{\contentsline {figure}{\numberline {14}{\ignorespaces Rastrigin function optimized using 10 dimensions, population of 50, and 200 iterations}}{10}}
\newlabel{fig:rastrigin2}{{14}{10}}
\@writefile{lof}{\contentsline {figure}{\numberline {15}{\ignorespaces Rastrigin function optimized using 20 dimensions, population of 50, and 200 iterations}}{11}}
\newlabel{fig:rastrigin3}{{15}{11}}
\@writefile{lof}{\contentsline {figure}{\numberline {16}{\ignorespaces Rastrigin function optimized using 20 dimensions, population of 50, and 200 iterations}}{11}}
\newlabel{fig:rastrigin4}{{16}{11}}
\@writefile{toc}{\contentsline {section}{\numberline {6}Conclusion}{12}}
\@writefile{toc}{\contentsline {section}{\numberline {7}Bibliography}{12}}
